{"count":66,"next":"http://172.19.80.19:8888/case/api/?page=2","previous":null,"results":[{"id":68,"valid":{"valid":"{\"status_code\":0}"},"header":{"header":"{}"},"param":{"param":"{}"},"name":"search_dragon--信息频道","url":"http://10.10.80.218:8080/dragonWeb/1.0/info","stag_url":"http://10.10.80.218:8080/dragonWeb/1.0/info","online_url":"http://10.10.80.218:8080/dragonWeb/1.0/info","create_time":"2019-04-30T15:40:41.769423+08:00","setup_suite":1},{"id":67,"valid":{"valid":"{\"status_code\":0}"},"header":{"header":"{}"},"param":{"param":"{}"},"name":"search_dragon--舆情","url":"http://10.10.80.218:8080/dragonWeb/v1/solr","stag_url":"http://10.10.80.218:8080/dragonWeb/v1/solr","online_url":"http://10.10.80.218:8080/dragonWeb/v1/solr","create_time":"2019-04-30T15:40:40.088371+08:00","setup_suite":1},{"id":66,"valid":{"valid":"{\"status_code\":0}"},"header":{"header":"{}"},"param":{"param":"{}"},"name":"search_dragon--投资图谱","url":"http://10.10.80.218:8080/dragonWeb/v1/suggest","stag_url":"http://10.10.80.218:8080/dragonWeb/v1/suggest","online_url":"http://10.10.80.218:8080/dragonWeb/v1/suggest","create_time":"2019-04-30T15:40:38.385118+08:00","setup_suite":1},{"id":65,"valid":{"valid":"{\"status_code\":0}"},"header":{"header":"{}"},"param":{"param":"{}"},"name":"search_dragon--圈子","url":"http://10.10.80.218:8080/dragonWeb/search","stag_url":"http://10.10.80.218:8080/dragonWeb/search","online_url":"http://10.10.80.218:8080/dragonWeb/search","create_time":"2019-04-30T15:40:36.466253+08:00","setup_suite":1},{"id":63,"valid":{"valid":"{\"status_code\": 0}"},"header":{"header":"{}"},"param":{"param":"{\"add_info\": '{}',\r\n\"click_sug\": false,\r\n\"debug\": 0,\r\n\"domain\": \"finance\",\r\n\"entity_info\": '{\"kyc_switch\":\"1\",\"urp_scene_val\":\"0\",\"business_type\":\"ths_company\",\"pure_text_ans\":\"1\",\"zhuguan_scene\":\"1\"}',\r\n\"logid\": \"finance_test_001_123456\",\r\n\"new_session\": 0,\r\n\"question\": \"\",\r\n\"secondary_intent\": \"stock\",\r\n\"source\": \"Ths_iwencai_App\",\r\n\"source_type\": \"ths_company\",\r\n\"trace_debug\": \"0\",\r\n\"user_id\": \"finance_test_001\",\r\n\"user_profile\": \"{}\",\r\n\"version\": \"2.0\"\r\n}"},"name":"金融适配器","url":"http://10.10.80.19:9231/finance_library","stag_url":"http://10.10.80.19:9231/finance_library","online_url":"http://10.10.80.19:9231/finance_library","create_time":"2019-04-30T15:31:40.304294+08:00","setup_suite":1},{"id":60,"valid":{"valid":"{}"},"header":{"header":"{}"},"param":{"param":"{}"},"name":"iwc_nlp_chunk_server","url":"http://10.10.80.91:9035/cm","stag_url":"http://10.10.80.91:9035/cm","online_url":"http://192.168.201.240:19860/cm","create_time":"2019-04-26T10:24:51.771939+08:00","setup_suite":null},{"id":49,"valid":{"valid":"{}"},"header":{"header":"{}"},"param":{"param":"{}"},"name":"search_dragon--联想","url":"http://10.10.80.218:8080/dragonWeb/1.0/yuqing/yuqingAssociateNew","stag_url":"","online_url":"","create_time":"2019-04-25T21:33:26.835411+08:00","setup_suite":null},{"id":47,"valid":{"valid":"{}"},"header":{"header":"{}"},"param":{"param":"{}"},"name":"search_dragon--机器人咨讯","url":"http://10.10.80.218:8080/dragonWeb/1.0/robotNews","stag_url":"","online_url":"","create_time":"2019-04-25T21:31:50.328708+08:00","setup_suite":null},{"id":46,"valid":{"valid":"{}"},"header":{"header":"{}"},"param":{"param":"{}"},"name":"search_dragon--百科","url":"http://10.10.80.218:8080/dragonWeb/1/solr/baike","stag_url":"","online_url":"","create_time":"2019-04-25T21:26:16.236246+08:00","setup_suite":null},{"id":62,"valid":{"valid":"{\"status_code\": 0,\r\n\"status_msg\": \"ok\"}"},"header":{"header":"{}"},"param":{"param":"{}"},"name":"datacore取数v2","url":"http://10.10.80.91:9999/nlp/v2/index_query","stag_url":"http://10.10.80.91:9999/nlp/v2/index_query","online_url":"http://10.10.80.91:9999/nlp/v2/index_query","create_time":"2019-04-25T16:02:30.798910+08:00","setup_suite":null}]}