{"count":1364,"next":"http://172.19.80.19:8888/case/apicase/?page=2","previous":null,"results":[{"id":2000,"name":"search_dragon-信息频道-接口访问","method":"GET","param":"{\"data\":'{\"query\":\"300033\",\"offset\":0,\"pagesize\":10}'}","headers":"{}","valid":"{ \"items\": [ { \"docs\": [ {\"value_exist_dict\": \"同花顺\" }] } ] }","create_time":"2019-04-30T16:35:02.469778+08:00","setup_suite":1,"api":68,"teardown":1},{"id":1940,"name":"newsstock接口用例_us_范围外词","method":"GET","param":"{\"tags\":\"阿里巴巴\"}","headers":"{}","valid":"{\"datas\":{\"paths\":\"not_none\"}}","create_time":"2019-04-29T15:21:03.561212+08:00","setup_suite":null,"api":53,"teardown":null},{"id":1942,"name":"newsstock接口用例_concept_正常取数","method":"GET","param":"{\"offset\":\"3\",\"limit\":\"7\"}","headers":"{}","valid":"{\"datas\":{\"concept_stock_weight\":\"equal_list_length(7)\"}}","create_time":"2019-04-29T15:19:23.847035+08:00","setup_suite":null,"api":55,"teardown":null},{"id":1946,"name":"newsstock接口用例_concept_异常取数","method":"GET","param":"{\"offset\":\"-1\",\"limit\":\"15\"}","headers":"{}","valid":"{\"datas\":{\"concept_stock_weight\":\"none\"}}","create_time":"2019-04-29T15:18:30.186949+08:00","setup_suite":null,"api":55,"teardown":null},{"id":1972,"name":"newsstock接口用例_concept_post请求","method":"POST","param":"{\"offset\":\"0\",\"limit\":\"150\"}","headers":"{}","valid":"{\"datas\":{\"concept_stock_weight\":equal_list_length(150)}}","create_time":"2019-04-29T15:12:11.963802+08:00","setup_suite":null,"api":55,"teardown":null},{"id":1818,"name":"结果页-ai-urp-robotindex-zhengu-usstock","method":"GET","param":"{\"query_type\":\"usstock\",\"parse_res\":{\"indexes\":\"[\\\"股票代码\\\"]\",\"domain\":\"abs_美股领域\"},\"scene_val\":2,\"w\":\"baba\",\"tag\":\"美股_单对象\",\"business_cat\":1,\"entity\":\"[{\\\"type\\\":\\\"code\\\",\\\"word\\\":\\\"baba\\\"}]\"}","headers":"{}","valid":"{\"answer\":{\"global\":{\"appVersion\":\"V6\",\"appModule\":\"Urp\",\"queryType\":\"usstock\",\"subjects\":{\"BABA\":{\"code\":\"BABA\",\"name\":\"阿里巴巴\",\"hqcode\":\"BABA\",\"hqmarketcode\":\"169\",\"type\":\"usstock\"}}}}}","create_time":"2019-04-28T20:58:21.672428+08:00","setup_suite":null,"api":42,"teardown":null},{"id":1815,"name":"结果页-ai-urp-robotindex-zhengu-hkstock","method":"GET","param":"{\"query_type\":\"hkstock\",\"parse_res\":{\"indexes\":\"[\\\"股票代码\\\"]\",\"domain\":\"abs_港股领域\"},\"scene_val\":2,\"w\":\"00700\",\"tag\":\"港股_单对象\",\"business_cat\":1,\"entity\":\"[{\\\"type\\\":\\\"code\\\",\\\"word\\\":\\\"00700\\\"}]\"}","headers":"{}","valid":"{\"answer\":{\"global\":{\"appVersion\":\"V6\",\"appModule\":\"Urp\",\"queryType\":\"hkstock\",\"subjects\":{\"0700\":{\"code\":\"0700\",\"name\":\"腾讯控股\",\"hqcode\":\"HK0700\",\"hqmarketcode\":\"177\",\"type\":\"hkstock\"}}}}}","create_time":"2019-04-28T20:57:20.191275+08:00","setup_suite":null,"api":42,"teardown":null},{"id":1997,"name":"datacore取数-汇率问题-港股@单季度归属于母公司所有者的净利润-单位cny","method":"GET","param":"{\"indexName\": \"港股@单季度归属于母公司所有者的净利润\", \"limitList\":'[{\"limitKey\":\"交易日期\",\"limitType\":\"大于等于\",\"limitValue\":\"20181231\"},{\"limitKey\":\"交易日期\",\"limitType\":\"小于等于\",\"limitValue\":\"20181231\"},{\"limitKey\":\"currency_unit\",\"limitType\":\"等于\",\"limitValue\":\"cny\"},{\"limitKey\":\"股票代码\",\"limitType\":\"等于\",\"limitValue\":\"0005.HK\"}]'}","headers":"{}","valid":"{\"data\":{ \"headList\": [ { \"indexName\": \"股票代码\", \"headName\": \"股票代码\" }, { \"indexName\": \"股票简称\", \"headList\": [\r\n{\r\n\"indexName\": \"股票代码\",\r\n\"headName\": \"股票代码\"\r\n},\r\n{\r\n\"indexName\": \"股票简称\",\r\n\"headName\": \"股票简称\"\r\n},\r\n{\r\n\"indexName\": \"港股@单季度归属于母公司所有者的净利润\",\r\n\"headName\": \"港股@单季度归属于母公司所有者的净利润\",\r\n\"start\": \"20181231\",\r\n\"end\": \"20181231\"\r\n}\r\n],\r\n\"dataList\": [\r\n{\r\n\"valueList\": [\r\n\"0005.HK\",\r\n\"汇丰控股\",\r\n4644256101.75\r\n]\r\n}\r\n] } ]}}","create_time":"2019-04-26T17:07:04.737975+08:00","setup_suite":null,"api":62,"teardown":null},{"id":1998,"name":"datacore取数-汇率问题-港股@单季度归属于母公司所有者的净利润-单位hkd","method":"GET","param":"{\"indexName\": \"港股@单季度归属于母公司所有者的净利润\", \"limitList\":'[{\"limitKey\":\"交易日期\",\"limitType\":\"大于等于\",\"limitValue\":\"20181231\"},{\"limitKey\":\"交易日期\",\"limitType\":\"小于等于\",\"limitValue\":\"20181231\"},{\"limitKey\":\"currency_unit\",\"limitType\":\"等于\",\"limitValue\":\"hkd\"},{\"limitKey\":\"股票代码\",\"limitType\":\"等于\",\"limitValue\":\"0005.HK\"}]'}","headers":"{}","valid":"{\"data\":{ \"headList\": [ { \"indexName\": \"股票代码\", \"headName\": \"股票代码\" }, { \"indexName\": \"股票简称\", \"headList\": [\r\n{\r\n\"indexName\": \"股票代码\",\r\n\"headName\": \"股票代码\"\r\n},\r\n{\r\n\"indexName\": \"股票简称\",\r\n\"headName\": \"股票简称\"\r\n},\r\n{\r\n\"indexName\": \"港股@单季度归属于母公司所有者的净利润\",\r\n\"headName\": \"港股@单季度归属于母公司所有者的净利润\",\r\n\"start\": \"20181231\",\r\n\"end\": \"20181231\"\r\n}\r\n],\r\n\"dataList\": [\r\n{\r\n\"valueList\": [\r\n\"0005.HK\",\r\n\"汇丰控股\",\r\n5287950000\r\n]\r\n}\r\n] } ]}}","create_time":"2019-04-26T17:06:54.779091+08:00","setup_suite":null,"api":62,"teardown":null},{"id":1999,"name":"datacore取数-汇率问题-港股@单季度归属于母公司所有者的净利润-单位usd","method":"GET","param":"{\"indexName\": \"港股@单季度归属于母公司所有者的净利润\", \"limitList\":'[{\"limitKey\":\"交易日期\",\"limitType\":\"大于等于\",\"limitValue\":\"20181231\"},{\"limitKey\":\"交易日期\",\"limitType\":\"小于等于\",\"limitValue\":\"20181231\"},{\"limitKey\":\"currency_unit\",\"limitType\":\"等于\",\"limitValue\":\"usd\"},{\"limitKey\":\"股票代码\",\"limitType\":\"等于\",\"limitValue\":\"0005.HK\"}]'}","headers":"{}","valid":"{\"data\":{ \"headList\": [ { \"indexName\": \"股票代码\", \"headName\": \"股票代码\" }, { \"indexName\": \"股票简称\", \"headList\": [\r\n{\r\n\"indexName\": \"股票代码\",\r\n\"headName\": \"股票代码\"\r\n},\r\n{\r\n\"indexName\": \"股票简称\",\r\n\"headName\": \"股票简称\"\r\n},\r\n{\r\n\"indexName\": \"港股@单季度归属于母公司所有者的净利润\",\r\n\"headName\": \"港股@单季度归属于母公司所有者的净利润\",\r\n\"start\": \"20181231\",\r\n\"end\": \"20181231\"\r\n}\r\n],\r\n\"dataList\": [\r\n{\r\n\"valueList\": [\r\n\"0005.HK\",\r\n\"汇丰控股\",\r\n675000000\r\n]\r\n}\r\n] } ]}}","create_time":"2019-04-26T17:06:46.475461+08:00","setup_suite":null,"api":62,"teardown":null}]}